{
	"n": {
		"item": "0.152.115",
		"rune": "0.152.55",
		"mastery": "0.152.115",
		"summoner": "0.152.115",
		"champion": "0.152.115",
		"profileicon": "0.152.115",
		"language": "0.152.115"
	},
	"v": "0.152.115",
	"l": "tr_TR",
	"cdn": "http:\/\/ddragon.leagueoflegends.com\/cdn",
	"dd": "0.152.115",
	"lg": "0.152.55",
	"css": "0.152.55",
	"profileiconmax": 28,
	"store": null
}